{
  "documents": {
    "content": [
      {
        "id": 50,
        "title": "ne, production-grade Spring based Applications that you can ",
        "text": "Spring Boot makes it easy to create stand-alone, production-grade Spring based Applications that you can  . We take an opinionated view of the Spring platform and third-party libraries so you can get started with minimum fuss. Most Spring Boot applications need very little Spring configuration. Features Create stand-alone Spring applications Embed Tomcat, Jetty or Undertow directly (no need to deploy WAR files) Provide opinionated 'starter' POMs to simplify your Maven configuration Automatically configure Spring whenever possible",
        "writer": "Spring1",
        "postDate": [
          2018,
          2,
          19
        ],
        "hit": 0
      },
      {
        "id": 49,
        "title": "ne, production-grade Spring based Applications that you can ",
        "text": "Spring Boot makes it easy to create stand-alone, production-grade Spring based Applications that you can  . We take an opinionated view of the Spring platform and third-party libraries so you can get started with minimum fuss. Most Spring Boot applications need very little Spring configuration. Features Create stand-alone Spring applications Embed Tomcat, Jetty or Undertow directly (no need to deploy WAR files) Provide opinionated 'starter' POMs to simplify your Maven configuration Automatically configure Spring whenever possible",
        "writer": "Spring1",
        "postDate": [
          2018,
          2,
          19
        ],
        "hit": 0
      },
      {
        "id": 48,
        "title": "ne, production-grade Spring based Applications that you can ",
        "text": "Spring Boot makes it easy to create stand-alone, production-grade Spring based Applications that you can  . We take an opinionated view of the Spring platform and third-party libraries so you can get started with minimum fuss. Most Spring Boot applications need very little Spring configuration. Features Create stand-alone Spring applications Embed Tomcat, Jetty or Undertow directly (no need to deploy WAR files) Provide opinionated 'starter' POMs to simplify your Maven configuration Automatically configure Spring whenever possible",
        "writer": "Spring1",
        "postDate": [
          2018,
          2,
          19
        ],
        "hit": 0
      },
      {
        "id": 47,
        "title": "ne, production-grade Spring based Applications that you can ",
        "text": "Spring Boot makes it easy to create stand-alone, production-grade Spring based Applications that you can  . We take an opinionated view of the Spring platform and third-party libraries so you can get started with minimum fuss. Most Spring Boot applications need very little Spring configuration. Features Create stand-alone Spring applications Embed Tomcat, Jetty or Undertow directly (no need to deploy WAR files) Provide opinionated 'starter' POMs to simplify your Maven configuration Automatically configure Spring whenever possible",
        "writer": "Spring1",
        "postDate": [
          2018,
          2,
          19
        ],
        "hit": 0
      },
      {
        "id": 46,
        "title": "ne, production-grade Spring based Applications that you can ",
        "text": "Spring Boot makes it easy to create stand-alone, production-grade Spring based Applications that you can  . We take an opinionated view of the Spring platform and third-party libraries so you can get started with minimum fuss. Most Spring Boot applications need very little Spring configuration. Features Create stand-alone Spring applications Embed Tomcat, Jetty or Undertow directly (no need to deploy WAR files) Provide opinionated 'starter' POMs to simplify your Maven configuration Automatically configure Spring whenever possible",
        "writer": "Spring1",
        "postDate": [
          2018,
          2,
          19
        ],
        "hit": 0
      },
      {
        "id": 45,
        "title": "ne, production-grade Spring based Applications that you can ",
        "text": "Spring Boot makes it easy to create stand-alone, production-grade Spring based Applications that you can  . We take an opinionated view of the Spring platform and third-party libraries so you can get started with minimum fuss. Most Spring Boot applications need very little Spring configuration. Features Create stand-alone Spring applications Embed Tomcat, Jetty or Undertow directly (no need to deploy WAR files) Provide opinionated 'starter' POMs to simplify your Maven configuration Automatically configure Spring whenever possible",
        "writer": "Spring1",
        "postDate": [
          2018,
          2,
          19
        ],
        "hit": 0
      },
      {
        "id": 44,
        "title": "ne, production-grade Spring based Applications that you can ",
        "text": "Spring Boot makes it easy to create stand-alone, production-grade Spring based Applications that you can  . We take an opinionated view of the Spring platform and third-party libraries so you can get started with minimum fuss. Most Spring Boot applications need very little Spring configuration. Features Create stand-alone Spring applications Embed Tomcat, Jetty or Undertow directly (no need to deploy WAR files) Provide opinionated 'starter' POMs to simplify your Maven configuration Automatically configure Spring whenever possible",
        "writer": "Spring1",
        "postDate": [
          2018,
          2,
          19
        ],
        "hit": 0
      },
      {
        "id": 43,
        "title": "ne, production-grade Spring based Applications that you can ",
        "text": "Spring Boot makes it easy to create stand-alone, production-grade Spring based Applications that you can  . We take an opinionated view of the Spring platform and third-party libraries so you can get started with minimum fuss. Most Spring Boot applications need very little Spring configuration. Features Create stand-alone Spring applications Embed Tomcat, Jetty or Undertow directly (no need to deploy WAR files) Provide opinionated 'starter' POMs to simplify your Maven configuration Automatically configure Spring whenever possible",
        "writer": "Spring1",
        "postDate": [
          2018,
          2,
          19
        ],
        "hit": 0
      }
    ],
    "pageable": {
      "sort": {
        "sorted": true,
        "unsorted": false
      },
      "offset": 0,
      "pageSize": 8,
      "pageNumber": 0,
      "paged": true,
      "unpaged": false
    },
    "last": false,
    "totalPages": 7,
    "totalElements": 50,
    "number": 0,
    "size": 8,
    "sort": {
      "sorted": true,
      "unsorted": false
    },
    "first": true,
    "numberOfElements": 8
  }
}
